1 = 42.244008
1 = 42.254191
1 = 42.242393
1 = 42.223826
1 = 42.284648
2 = 23.521685
2 = 23.532997
2 = 23.567105
2 = 23.469519
2 = 23.298493
3 = 19.893534
3 = 19.757292
3 = 19.654569
3 = 19.645844
3 = 19.710300
4 = 17.600343
4 = 17.602545
4 = 17.622956
4 = 17.614734
4 = 17.654059
5 = 14.652049
5 = 14.666355
5 = 14.617604
5 = 14.904479
5 = 14.634428
6 = 14.153721
6 = 15.199458
6 = 15.075718
6 = 14.170409
6 = 14.383746
7 = 13.729533
7 = 13.682916
7 = 13.073632
7 = 13.294593
7 = 13.302180
8 = 12.371147
8 = 12.350933
8 = 12.214758
8 = 12.786184
8 = 12.360175
