1 = 70.080731
1 = 69.487608
1 = 69.435535
1 = 69.441690
1 = 69.477045
2 = 166.882810
2 = 132.609450
2 = 165.499501
2 = 122.699703
2 = 170.038509
3 = 148.312685
3 = 167.439526
3 = 175.206346
3 = 262.632162
3 = 173.930431
4 = 266.223065
4 = 250.444787
4 = 269.298662
4 = 260.863814
4 = 257.217875
5 = 289.555697
5 = 275.450218
5 = 360.108141
5 = 290.849169
5 = 301.225673
6 = 440.270153
6 = 412.061000
6 = 448.644209
6 = 437.310110
6 = 435.016683
7 = 434.077115
7 = 446.564478
7 = 443.479327
7 = 414.874175
7 = 618.728505
8 = 541.616474
8 = 492.448059
8 = 454.297812
8 = 480.320560
8 = 505.510304
