watermark = "Generated by Pavel Shamis at `date`";
set label 9999 watermark at screen 0.02,0.98 font "FreeSans, 8"

# set terminal png transparent font courier 10 size 1024,768
# set terminal png size 800,600

# set terminal postscript eps enhanced monochrome "Helvetica" 13
set terminal postscript eps enhanced color "Helvetica" 17
set output "mergesort_scale.eps"

set encoding iso_8859_1
set title "MergeSort Scalability"
set xlabel "Number of Threads"
set ylabel "Speedup (relatively to serial execution)"
set xrange [1:8]
#set yrange [0:50]
#set xtics (8,16,24,32,40,48,56,64)
#set logscale x
#set logscale y
#set key at 20,28
set grid

#set style line 1 linetype 1 linewidth 4 pointtype 2
#set style line 2 linetype 3 linewidth 4 pointtype 3
#set style line 3 linetype 4 linewidth 4 pointtype 4
#set style line 4 linetype 5 linewidth 4 pointtype 5
#set style line 5 linetype 6 linewidth 4 pointtype 6
#set style line 6 linetype 7 linewidth 4 pointtype 7
#set style line 7 linetype 8 linewidth 4 pointtype 8
#set style line 8 linetype 9 linewidth 4 pointtype 9

plot \
    "../log/latest/merge_sortNP_0_out.dat" using 1:3 title "MergeSort No-Prune" with linespoints, \
     "../log/latest/merge_sortP_0_out.dat" using 1:3 title "MergeSort Prune"  with linespoints, \
     "../log/latest/merge_sortS_0_out.dat" using 1:3 title "MergeSort Prune and Spawn One"  with linespoints
