1 = 44.090322
1 = 44.113577
1 = 44.795835
1 = 44.095614
1 = 44.150430
2 = 22.887094
2 = 22.893941
2 = 22.904945
2 = 22.907336
2 = 22.886267
3 = 22.905514
3 = 22.905319
3 = 22.922261
3 = 22.913674
3 = 22.902036
4 = 16.945532
4 = 17.610908
4 = 18.758772
4 = 17.640861
4 = 18.772520
5 = 16.916079
5 = 17.658049
5 = 12.852414
5 = 17.651253
5 = 16.936652
6 = 12.804684
6 = 12.810100
6 = 12.802830
6 = 12.854680
6 = 12.814943
7 = 12.718030
7 = 12.801287
7 = 11.557181
7 = 12.225009
7 = 12.724675
8 = 11.029520
8 = 11.916666
8 = 12.129849
8 = 11.040748
8 = 11.205033
